{"files": ["/Users/znicholls/Documents/AGCEC/Misc/netcdf-scm/papers/v2/data/raw/cmip6-output/CMIP6/GeoMIP/IPSL/IPSL-CM6A-LR/G6solar/r1i1p1f1/Amon/tas/gr/v20190311/tas_Amon_IPSL-CM6A-LR_G6solar_r1i1p1f1_gr_202001-210012.nc"], "metadata": {"areacella": {"files": ["/Users/znicholls/Documents/AGCEC/Misc/netcdf-scm/papers/v2/data/raw/cmip6-output/CMIP6/GeoMIP/IPSL/IPSL-CM6A-LR/G6solar/r1i1p1f1/fx/areacella/gr/v20190311/areacella_fx_IPSL-CM6A-LR_G6solar_r1i1p1f1_gr.nc"]}, "sftlf": {"files": ["/Users/znicholls/Documents/AGCEC/Misc/netcdf-scm/papers/v2/data/raw/cmip6-output/CMIP6/GeoMIP/IPSL/IPSL-CM6A-LR/G6solar/r1i1p1f1/fx/sftlf/gr/v20190311/sftlf_fx_IPSL-CM6A-LR_G6solar_r1i1p1f1_gr.nc"], "metadata": {"areacella": {"files": ["/Users/znicholls/Documents/AGCEC/Misc/netcdf-scm/papers/v2/data/raw/cmip6-output/CMIP6/GeoMIP/IPSL/IPSL-CM6A-LR/G6solar/r1i1p1f1/fx/areacella/gr/v20190311/areacella_fx_IPSL-CM6A-LR_G6solar_r1i1p1f1_gr.nc"]}}}}, "filename": "/Users/znicholls/Documents/AGCEC/Misc/netcdf-scm/papers/v2/data/processed/cmip6-output/netcdf-scm-crunched/CMIP6/GeoMIP/IPSL/IPSL-CM6A-LR/G6solar/r1i1p1f1/Amon/tas/gr/v20190311/netcdf-scm_tas_Amon_IPSL-CM6A-LR_G6solar_r1i1p1f1_gr_202001-210012.nc", "updated_at": "2020-05-17T07:25:40.443561"}
{"files": ["/Users/znicholls/Documents/AGCEC/Misc/netcdf-scm/papers/v2/data/raw/cmip6-output/CMIP6/CMIP/IPSL/IPSL-CM6A-LR/historical/r1i1p1f1/Amon/tas/gr/v20180803/tas_Amon_IPSL-CM6A-LR_historical_r1i1p1f1_gr_185001-201412.nc"], "metadata": {"areacella": {"files": ["/Users/znicholls/Documents/AGCEC/Misc/netcdf-scm/papers/v2/data/raw/cmip6-output/CMIP6/CMIP/IPSL/IPSL-CM6A-LR/historical/r1i1p1f1/fx/areacella/gr/v20180803/areacella_fx_IPSL-CM6A-LR_historical_r1i1p1f1_gr.nc"]}, "sftlf": {"files": ["/Users/znicholls/Documents/AGCEC/Misc/netcdf-scm/papers/v2/data/raw/cmip6-output/CMIP6/CMIP/IPSL/IPSL-CM6A-LR/historical/r1i1p1f1/fx/sftlf/gr/v20180803/sftlf_fx_IPSL-CM6A-LR_historical_r1i1p1f1_gr.nc"], "metadata": {"areacella": {"files": ["/Users/znicholls/Documents/AGCEC/Misc/netcdf-scm/papers/v2/data/raw/cmip6-output/CMIP6/CMIP/IPSL/IPSL-CM6A-LR/historical/r1i1p1f1/fx/areacella/gr/v20180803/areacella_fx_IPSL-CM6A-LR_historical_r1i1p1f1_gr.nc"]}}}}, "filename": "/Users/znicholls/Documents/AGCEC/Misc/netcdf-scm/papers/v2/data/processed/cmip6-output/netcdf-scm-crunched/CMIP6/CMIP/IPSL/IPSL-CM6A-LR/historical/r1i1p1f1/Amon/tas/gr/v20180803/netcdf-scm_tas_Amon_IPSL-CM6A-LR_historical_r1i1p1f1_gr_185001-201412.nc", "updated_at": "2020-05-17T07:25:43.686068"}
{"files": ["/Users/znicholls/Documents/AGCEC/Misc/netcdf-scm/papers/v2/data/raw/cmip6-output/CMIP6/GeoMIP/NCAR/CESM2-WACCM/G6solar/r1i1p1f1/Amon/tas/gn/v20191001/tas_Amon_CESM2-WACCM_G6solar_r1i1p1f1_gn_201901-206812.nc", "/Users/znicholls/Documents/AGCEC/Misc/netcdf-scm/papers/v2/data/raw/cmip6-output/CMIP6/GeoMIP/NCAR/CESM2-WACCM/G6solar/r1i1p1f1/Amon/tas/gn/v20191001/tas_Amon_CESM2-WACCM_G6solar_r1i1p1f1_gn_206901-210012.nc"], "metadata": {"areacella": {"files": ["/Users/znicholls/Documents/AGCEC/Misc/netcdf-scm/papers/v2/data/raw/cmip6-output/CMIP6/GeoMIP/NCAR/CESM2-WACCM/G6solar/r1i1p1f1/fx/areacella/gn/v20191001/areacella_fx_CESM2-WACCM_G6solar_r1i1p1f1_gn.nc"]}, "sftlf": {"files": ["/Users/znicholls/Documents/AGCEC/Misc/netcdf-scm/papers/v2/data/raw/cmip6-output/CMIP6/GeoMIP/NCAR/CESM2-WACCM/G6solar/r1i1p1f1/fx/sftlf/gn/v20191001/sftlf_fx_CESM2-WACCM_G6solar_r1i1p1f1_gn.nc"], "metadata": {"areacella": {"files": ["/Users/znicholls/Documents/AGCEC/Misc/netcdf-scm/papers/v2/data/raw/cmip6-output/CMIP6/GeoMIP/NCAR/CESM2-WACCM/G6solar/r1i1p1f1/fx/areacella/gn/v20191001/areacella_fx_CESM2-WACCM_G6solar_r1i1p1f1_gn.nc"]}}}}, "filename": "/Users/znicholls/Documents/AGCEC/Misc/netcdf-scm/papers/v2/data/processed/cmip6-output/netcdf-scm-crunched/CMIP6/GeoMIP/NCAR/CESM2-WACCM/G6solar/r1i1p1f1/Amon/tas/gn/v20191001/netcdf-scm_tas_Amon_CESM2-WACCM_G6solar_r1i1p1f1_gn_201901-210012.nc", "updated_at": "2020-05-17T07:25:44.888555"}
{"files": ["/Users/znicholls/Documents/AGCEC/Misc/netcdf-scm/papers/v2/data/raw/cmip6-output/CMIP6/ScenarioMIP/NCAR/CESM2-WACCM/ssp585/r1i1p1f1/Amon/tas/gn/v20190815/tas_Amon_CESM2-WACCM_ssp585_r1i1p1f1_gn_201501-210012.nc"], "metadata": {"areacella": {"files": ["/Users/znicholls/Documents/AGCEC/Misc/netcdf-scm/papers/v2/data/raw/cmip6-output/CMIP6/ScenarioMIP/NCAR/CESM2-WACCM/ssp585/r1i1p1f1/fx/areacella/gn/v20190815/areacella_fx_CESM2-WACCM_ssp585_r1i1p1f1_gn.nc"]}, "sftlf": {"files": ["/Users/znicholls/Documents/AGCEC/Misc/netcdf-scm/papers/v2/data/raw/cmip6-output/CMIP6/ScenarioMIP/NCAR/CESM2-WACCM/ssp585/r1i1p1f1/fx/sftlf/gn/v20190815/sftlf_fx_CESM2-WACCM_ssp585_r1i1p1f1_gn.nc"], "metadata": {"areacella": {"files": ["/Users/znicholls/Documents/AGCEC/Misc/netcdf-scm/papers/v2/data/raw/cmip6-output/CMIP6/ScenarioMIP/NCAR/CESM2-WACCM/ssp585/r1i1p1f1/fx/areacella/gn/v20190815/areacella_fx_CESM2-WACCM_ssp585_r1i1p1f1_gn.nc"]}}}}, "filename": "/Users/znicholls/Documents/AGCEC/Misc/netcdf-scm/papers/v2/data/processed/cmip6-output/netcdf-scm-crunched/CMIP6/ScenarioMIP/NCAR/CESM2-WACCM/ssp585/r1i1p1f1/Amon/tas/gn/v20190815/netcdf-scm_tas_Amon_CESM2-WACCM_ssp585_r1i1p1f1_gn_201501-210012.nc", "updated_at": "2020-05-17T07:25:45.177997"}
{"files": ["/Users/znicholls/Documents/AGCEC/Misc/netcdf-scm/papers/v2/data/raw/cmip6-output/CMIP6/ScenarioMIP/IPSL/IPSL-CM6A-LR/ssp585/r1i1p1f1/Amon/tas/gr/v20190903/tas_Amon_IPSL-CM6A-LR_ssp585_r1i1p1f1_gr_201501-210012.nc", "/Users/znicholls/Documents/AGCEC/Misc/netcdf-scm/papers/v2/data/raw/cmip6-output/CMIP6/ScenarioMIP/IPSL/IPSL-CM6A-LR/ssp585/r1i1p1f1/Amon/tas/gr/v20190903/tas_Amon_IPSL-CM6A-LR_ssp585_r1i1p1f1_gr_210101-230012.nc"], "metadata": {"areacella": {"files": ["/Users/znicholls/Documents/AGCEC/Misc/netcdf-scm/papers/v2/data/raw/cmip6-output/CMIP6/ScenarioMIP/IPSL/IPSL-CM6A-LR/ssp585/r1i1p1f1/fx/areacella/gr/v20190903/areacella_fx_IPSL-CM6A-LR_ssp585_r1i1p1f1_gr.nc"]}, "sftlf": {"files": ["/Users/znicholls/Documents/AGCEC/Misc/netcdf-scm/papers/v2/data/raw/cmip6-output/CMIP6/ScenarioMIP/IPSL/IPSL-CM6A-LR/ssp585/r1i1p1f1/fx/sftlf/gr/v20190903/sftlf_fx_IPSL-CM6A-LR_ssp585_r1i1p1f1_gr.nc"], "metadata": {"areacella": {"files": ["/Users/znicholls/Documents/AGCEC/Misc/netcdf-scm/papers/v2/data/raw/cmip6-output/CMIP6/ScenarioMIP/IPSL/IPSL-CM6A-LR/ssp585/r1i1p1f1/fx/areacella/gr/v20190903/areacella_fx_IPSL-CM6A-LR_ssp585_r1i1p1f1_gr.nc"]}}}}, "filename": "/Users/znicholls/Documents/AGCEC/Misc/netcdf-scm/papers/v2/data/processed/cmip6-output/netcdf-scm-crunched/CMIP6/ScenarioMIP/IPSL/IPSL-CM6A-LR/ssp585/r1i1p1f1/Amon/tas/gr/v20190903/netcdf-scm_tas_Amon_IPSL-CM6A-LR_ssp585_r1i1p1f1_gr_201501-230012.nc", "updated_at": "2020-05-17T07:25:47.096485"}
{"files": ["/Users/znicholls/Documents/AGCEC/Misc/netcdf-scm/papers/v2/data/raw/cmip6-output/CMIP6/CMIP/NCAR/CESM2-WACCM/historical/r1i1p1f1/Amon/tas/gn/v20190227/tas_Amon_CESM2-WACCM_historical_r1i1p1f1_gn_185001-201412.nc"], "metadata": {"areacella": {"files": ["/Users/znicholls/Documents/AGCEC/Misc/netcdf-scm/papers/v2/data/raw/cmip6-output/CMIP6/CMIP/NCAR/CESM2-WACCM/historical/r1i1p1f1/fx/areacella/gn/v20190227/areacella_fx_CESM2-WACCM_historical_r1i1p1f1_gn.nc"]}, "sftlf": {"files": ["/Users/znicholls/Documents/AGCEC/Misc/netcdf-scm/papers/v2/data/raw/cmip6-output/CMIP6/CMIP/NCAR/CESM2-WACCM/historical/r1i1p1f1/fx/sftlf/gn/v20190227/sftlf_fx_CESM2-WACCM_historical_r1i1p1f1_gn.nc"], "metadata": {"areacella": {"files": ["/Users/znicholls/Documents/AGCEC/Misc/netcdf-scm/papers/v2/data/raw/cmip6-output/CMIP6/CMIP/NCAR/CESM2-WACCM/historical/r1i1p1f1/fx/areacella/gn/v20190227/areacella_fx_CESM2-WACCM_historical_r1i1p1f1_gn.nc"]}}}}, "filename": "/Users/znicholls/Documents/AGCEC/Misc/netcdf-scm/papers/v2/data/processed/cmip6-output/netcdf-scm-crunched/CMIP6/CMIP/NCAR/CESM2-WACCM/historical/r1i1p1f1/Amon/tas/gn/v20190227/netcdf-scm_tas_Amon_CESM2-WACCM_historical_r1i1p1f1_gn_185001-201412.nc", "updated_at": "2020-05-17T07:25:49.710614"}
{"files": ["/Users/znicholls/Documents/AGCEC/Misc/netcdf-scm/papers/v2/data/raw/cmip6-output/CMIP6/CMIP/NCAR/CESM2-WACCM/piControl/r1i1p1f1/Amon/tas/gn/v20190320/tas_Amon_CESM2-WACCM_piControl_r1i1p1f1_gn_000101-009912.nc", "/Users/znicholls/Documents/AGCEC/Misc/netcdf-scm/papers/v2/data/raw/cmip6-output/CMIP6/CMIP/NCAR/CESM2-WACCM/piControl/r1i1p1f1/Amon/tas/gn/v20190320/tas_Amon_CESM2-WACCM_piControl_r1i1p1f1_gn_010001-019912.nc", "/Users/znicholls/Documents/AGCEC/Misc/netcdf-scm/papers/v2/data/raw/cmip6-output/CMIP6/CMIP/NCAR/CESM2-WACCM/piControl/r1i1p1f1/Amon/tas/gn/v20190320/tas_Amon_CESM2-WACCM_piControl_r1i1p1f1_gn_020001-029912.nc", "/Users/znicholls/Documents/AGCEC/Misc/netcdf-scm/papers/v2/data/raw/cmip6-output/CMIP6/CMIP/NCAR/CESM2-WACCM/piControl/r1i1p1f1/Amon/tas/gn/v20190320/tas_Amon_CESM2-WACCM_piControl_r1i1p1f1_gn_030001-034912.nc", "/Users/znicholls/Documents/AGCEC/Misc/netcdf-scm/papers/v2/data/raw/cmip6-output/CMIP6/CMIP/NCAR/CESM2-WACCM/piControl/r1i1p1f1/Amon/tas/gn/v20190320/tas_Amon_CESM2-WACCM_piControl_r1i1p1f1_gn_035001-039912.nc", "/Users/znicholls/Documents/AGCEC/Misc/netcdf-scm/papers/v2/data/raw/cmip6-output/CMIP6/CMIP/NCAR/CESM2-WACCM/piControl/r1i1p1f1/Amon/tas/gn/v20190320/tas_Amon_CESM2-WACCM_piControl_r1i1p1f1_gn_040001-044912.nc", "/Users/znicholls/Documents/AGCEC/Misc/netcdf-scm/papers/v2/data/raw/cmip6-output/CMIP6/CMIP/NCAR/CESM2-WACCM/piControl/r1i1p1f1/Amon/tas/gn/v20190320/tas_Amon_CESM2-WACCM_piControl_r1i1p1f1_gn_045001-049912.nc"], "metadata": {"areacella": {"files": ["/Users/znicholls/Documents/AGCEC/Misc/netcdf-scm/papers/v2/data/raw/cmip6-output/CMIP6/CMIP/NCAR/CESM2-WACCM/piControl/r1i1p1f1/fx/areacella/gn/v20190320/areacella_fx_CESM2-WACCM_piControl_r1i1p1f1_gn.nc"]}, "sftlf": {"files": ["/Users/znicholls/Documents/AGCEC/Misc/netcdf-scm/papers/v2/data/raw/cmip6-output/CMIP6/CMIP/NCAR/CESM2-WACCM/piControl/r1i1p1f1/fx/sftlf/gn/v20190320/sftlf_fx_CESM2-WACCM_piControl_r1i1p1f1_gn.nc"], "metadata": {"areacella": {"files": ["/Users/znicholls/Documents/AGCEC/Misc/netcdf-scm/papers/v2/data/raw/cmip6-output/CMIP6/CMIP/NCAR/CESM2-WACCM/piControl/r1i1p1f1/fx/areacella/gn/v20190320/areacella_fx_CESM2-WACCM_piControl_r1i1p1f1_gn.nc"]}}}}, "filename": "/Users/znicholls/Documents/AGCEC/Misc/netcdf-scm/papers/v2/data/processed/cmip6-output/netcdf-scm-crunched/CMIP6/CMIP/NCAR/CESM2-WACCM/piControl/r1i1p1f1/Amon/tas/gn/v20190320/netcdf-scm_tas_Amon_CESM2-WACCM_piControl_r1i1p1f1_gn_000101-049912.nc", "updated_at": "2020-05-17T07:26:21.715572"}
{"files": ["/Users/znicholls/Documents/AGCEC/Misc/netcdf-scm/papers/v2/data/raw/cmip6-output/CMIP6/CMIP/IPSL/IPSL-CM6A-LR/piControl/r1i1p1f1/Amon/tas/gr/v20181123/tas_Amon_IPSL-CM6A-LR_piControl_r1i1p1f1_gr_185001-234912.nc", "/Users/znicholls/Documents/AGCEC/Misc/netcdf-scm/papers/v2/data/raw/cmip6-output/CMIP6/CMIP/IPSL/IPSL-CM6A-LR/piControl/r1i1p1f1/Amon/tas/gr/v20181123/tas_Amon_IPSL-CM6A-LR_piControl_r1i1p1f1_gr_235001-284912.nc", "/Users/znicholls/Documents/AGCEC/Misc/netcdf-scm/papers/v2/data/raw/cmip6-output/CMIP6/CMIP/IPSL/IPSL-CM6A-LR/piControl/r1i1p1f1/Amon/tas/gr/v20181123/tas_Amon_IPSL-CM6A-LR_piControl_r1i1p1f1_gr_285001-304912.nc"], "metadata": {"areacella": {"files": ["/Users/znicholls/Documents/AGCEC/Misc/netcdf-scm/papers/v2/data/raw/cmip6-output/CMIP6/CMIP/IPSL/IPSL-CM6A-LR/piControl/r1i1p1f1/fx/areacella/gr/v20181123/areacella_fx_IPSL-CM6A-LR_piControl_r1i1p1f1_gr.nc"]}, "sftlf": {"files": ["/Users/znicholls/Documents/AGCEC/Misc/netcdf-scm/papers/v2/data/raw/cmip6-output/CMIP6/CMIP/IPSL/IPSL-CM6A-LR/piControl/r1i1p1f1/fx/sftlf/gr/v20181123/sftlf_fx_IPSL-CM6A-LR_piControl_r1i1p1f1_gr.nc"], "metadata": {"areacella": {"files": ["/Users/znicholls/Documents/AGCEC/Misc/netcdf-scm/papers/v2/data/raw/cmip6-output/CMIP6/CMIP/IPSL/IPSL-CM6A-LR/piControl/r1i1p1f1/fx/areacella/gr/v20181123/areacella_fx_IPSL-CM6A-LR_piControl_r1i1p1f1_gr.nc"]}}}}, "filename": "/Users/znicholls/Documents/AGCEC/Misc/netcdf-scm/papers/v2/data/processed/cmip6-output/netcdf-scm-crunched/CMIP6/CMIP/IPSL/IPSL-CM6A-LR/piControl/r1i1p1f1/Amon/tas/gr/v20181123/netcdf-scm_tas_Amon_IPSL-CM6A-LR_piControl_r1i1p1f1_gr_185001-304912.nc", "updated_at": "2020-05-17T07:26:51.763110"}
{"files": ["/Users/znicholls/Documents/AGCEC/netCDF-SCM/netcdf-scm/papers/v2/data/raw/cmip6-output/CMIP6/GeoMIP/IPSL/IPSL-CM6A-LR/G6solar/r1i1p1f1/Amon/tas/gr/v20190311/tas_Amon_IPSL-CM6A-LR_G6solar_r1i1p1f1_gr_202001-210012.nc"], "metadata": {"areacella": {"files": ["/Users/znicholls/Documents/AGCEC/netCDF-SCM/netcdf-scm/papers/v2/data/raw/cmip6-output/CMIP6/GeoMIP/IPSL/IPSL-CM6A-LR/G6solar/r1i1p1f1/fx/areacella/gr/v20190311/areacella_fx_IPSL-CM6A-LR_G6solar_r1i1p1f1_gr.nc"]}, "sftlf": {"files": ["/Users/znicholls/Documents/AGCEC/netCDF-SCM/netcdf-scm/papers/v2/data/raw/cmip6-output/CMIP6/GeoMIP/IPSL/IPSL-CM6A-LR/G6solar/r1i1p1f1/fx/sftlf/gr/v20190311/sftlf_fx_IPSL-CM6A-LR_G6solar_r1i1p1f1_gr.nc"], "metadata": {"areacella": {"files": ["/Users/znicholls/Documents/AGCEC/netCDF-SCM/netcdf-scm/papers/v2/data/raw/cmip6-output/CMIP6/GeoMIP/IPSL/IPSL-CM6A-LR/G6solar/r1i1p1f1/fx/areacella/gr/v20190311/areacella_fx_IPSL-CM6A-LR_G6solar_r1i1p1f1_gr.nc"]}}}}, "filename": "/Users/znicholls/Documents/AGCEC/netCDF-SCM/netcdf-scm/papers/v2/data/processed/cmip6-output/netcdf-scm-crunched/CMIP6/GeoMIP/IPSL/IPSL-CM6A-LR/G6solar/r1i1p1f1/Amon/tas/gr/v20190311/netcdf-scm_tas_Amon_IPSL-CM6A-LR_G6solar_r1i1p1f1_gr_202001-210012.nc", "updated_at": "2020-07-21T07:18:30.850458"}
{"files": ["/Users/znicholls/Documents/AGCEC/netCDF-SCM/netcdf-scm/papers/v2/data/raw/cmip6-output/CMIP6/CMIP/IPSL/IPSL-CM6A-LR/historical/r1i1p1f1/Amon/tas/gr/v20180803/tas_Amon_IPSL-CM6A-LR_historical_r1i1p1f1_gr_185001-201412.nc"], "metadata": {"areacella": {"files": ["/Users/znicholls/Documents/AGCEC/netCDF-SCM/netcdf-scm/papers/v2/data/raw/cmip6-output/CMIP6/CMIP/IPSL/IPSL-CM6A-LR/historical/r1i1p1f1/fx/areacella/gr/v20180803/areacella_fx_IPSL-CM6A-LR_historical_r1i1p1f1_gr.nc"]}, "sftlf": {"files": ["/Users/znicholls/Documents/AGCEC/netCDF-SCM/netcdf-scm/papers/v2/data/raw/cmip6-output/CMIP6/CMIP/IPSL/IPSL-CM6A-LR/historical/r1i1p1f1/fx/sftlf/gr/v20180803/sftlf_fx_IPSL-CM6A-LR_historical_r1i1p1f1_gr.nc"], "metadata": {"areacella": {"files": ["/Users/znicholls/Documents/AGCEC/netCDF-SCM/netcdf-scm/papers/v2/data/raw/cmip6-output/CMIP6/CMIP/IPSL/IPSL-CM6A-LR/historical/r1i1p1f1/fx/areacella/gr/v20180803/areacella_fx_IPSL-CM6A-LR_historical_r1i1p1f1_gr.nc"]}}}}, "filename": "/Users/znicholls/Documents/AGCEC/netCDF-SCM/netcdf-scm/papers/v2/data/processed/cmip6-output/netcdf-scm-crunched/CMIP6/CMIP/IPSL/IPSL-CM6A-LR/historical/r1i1p1f1/Amon/tas/gr/v20180803/netcdf-scm_tas_Amon_IPSL-CM6A-LR_historical_r1i1p1f1_gr_185001-201412.nc", "updated_at": "2020-07-21T07:18:35.254105"}
{"files": ["/Users/znicholls/Documents/AGCEC/netCDF-SCM/netcdf-scm/papers/v2/data/raw/cmip6-output/CMIP6/GeoMIP/NCAR/CESM2-WACCM/G6solar/r1i1p1f1/Amon/tas/gn/v20191001/tas_Amon_CESM2-WACCM_G6solar_r1i1p1f1_gn_201901-206812.nc", "/Users/znicholls/Documents/AGCEC/netCDF-SCM/netcdf-scm/papers/v2/data/raw/cmip6-output/CMIP6/GeoMIP/NCAR/CESM2-WACCM/G6solar/r1i1p1f1/Amon/tas/gn/v20191001/tas_Amon_CESM2-WACCM_G6solar_r1i1p1f1_gn_206901-210012.nc"], "metadata": {"areacella": {"files": ["/Users/znicholls/Documents/AGCEC/netCDF-SCM/netcdf-scm/papers/v2/data/raw/cmip6-output/CMIP6/GeoMIP/NCAR/CESM2-WACCM/G6solar/r1i1p1f1/fx/areacella/gn/v20191001/areacella_fx_CESM2-WACCM_G6solar_r1i1p1f1_gn.nc"]}, "sftlf": {"files": ["/Users/znicholls/Documents/AGCEC/netCDF-SCM/netcdf-scm/papers/v2/data/raw/cmip6-output/CMIP6/GeoMIP/NCAR/CESM2-WACCM/G6solar/r1i1p1f1/fx/sftlf/gn/v20191001/sftlf_fx_CESM2-WACCM_G6solar_r1i1p1f1_gn.nc"], "metadata": {"areacella": {"files": ["/Users/znicholls/Documents/AGCEC/netCDF-SCM/netcdf-scm/papers/v2/data/raw/cmip6-output/CMIP6/GeoMIP/NCAR/CESM2-WACCM/G6solar/r1i1p1f1/fx/areacella/gn/v20191001/areacella_fx_CESM2-WACCM_G6solar_r1i1p1f1_gn.nc"]}}}}, "filename": "/Users/znicholls/Documents/AGCEC/netCDF-SCM/netcdf-scm/papers/v2/data/processed/cmip6-output/netcdf-scm-crunched/CMIP6/GeoMIP/NCAR/CESM2-WACCM/G6solar/r1i1p1f1/Amon/tas/gn/v20191001/netcdf-scm_tas_Amon_CESM2-WACCM_G6solar_r1i1p1f1_gn_201901-210012.nc", "updated_at": "2020-07-21T07:18:36.215443"}
{"files": ["/Users/znicholls/Documents/AGCEC/netCDF-SCM/netcdf-scm/papers/v2/data/raw/cmip6-output/CMIP6/CMIP/IPSL/IPSL-CM6A-LR/piControl/r1i1p1f1/Amon/tas/gr/v20181123/tas_Amon_IPSL-CM6A-LR_piControl_r1i1p1f1_gr_285001-304912.nc"], "metadata": {"areacella": {"files": ["/Users/znicholls/Documents/AGCEC/netCDF-SCM/netcdf-scm/papers/v2/data/raw/cmip6-output/CMIP6/CMIP/IPSL/IPSL-CM6A-LR/piControl/r1i1p1f1/fx/areacella/gr/v20181123/areacella_fx_IPSL-CM6A-LR_piControl_r1i1p1f1_gr.nc"]}, "sftlf": {"files": ["/Users/znicholls/Documents/AGCEC/netCDF-SCM/netcdf-scm/papers/v2/data/raw/cmip6-output/CMIP6/CMIP/IPSL/IPSL-CM6A-LR/piControl/r1i1p1f1/fx/sftlf/gr/v20181123/sftlf_fx_IPSL-CM6A-LR_piControl_r1i1p1f1_gr.nc"], "metadata": {"areacella": {"files": ["/Users/znicholls/Documents/AGCEC/netCDF-SCM/netcdf-scm/papers/v2/data/raw/cmip6-output/CMIP6/CMIP/IPSL/IPSL-CM6A-LR/piControl/r1i1p1f1/fx/areacella/gr/v20181123/areacella_fx_IPSL-CM6A-LR_piControl_r1i1p1f1_gr.nc"]}}}}, "filename": "/Users/znicholls/Documents/AGCEC/netCDF-SCM/netcdf-scm/papers/v2/data/processed/cmip6-output/netcdf-scm-crunched/CMIP6/CMIP/IPSL/IPSL-CM6A-LR/piControl/r1i1p1f1/Amon/tas/gr/v20181123/netcdf-scm_tas_Amon_IPSL-CM6A-LR_piControl_r1i1p1f1_gr_285001-304912.nc", "updated_at": "2020-07-21T07:18:36.665355"}
{"files": ["/Users/znicholls/Documents/AGCEC/netCDF-SCM/netcdf-scm/papers/v2/data/raw/cmip6-output/CMIP6/ScenarioMIP/NCAR/CESM2-WACCM/ssp585/r1i1p1f1/Amon/tas/gn/v20190815/tas_Amon_CESM2-WACCM_ssp585_r1i1p1f1_gn_201501-210012.nc"], "metadata": {"areacella": {"files": ["/Users/znicholls/Documents/AGCEC/netCDF-SCM/netcdf-scm/papers/v2/data/raw/cmip6-output/CMIP6/ScenarioMIP/NCAR/CESM2-WACCM/ssp585/r1i1p1f1/fx/areacella/gn/v20190815/areacella_fx_CESM2-WACCM_ssp585_r1i1p1f1_gn.nc"]}, "sftlf": {"files": ["/Users/znicholls/Documents/AGCEC/netCDF-SCM/netcdf-scm/papers/v2/data/raw/cmip6-output/CMIP6/ScenarioMIP/NCAR/CESM2-WACCM/ssp585/r1i1p1f1/fx/sftlf/gn/v20190815/sftlf_fx_CESM2-WACCM_ssp585_r1i1p1f1_gn.nc"], "metadata": {"areacella": {"files": ["/Users/znicholls/Documents/AGCEC/netCDF-SCM/netcdf-scm/papers/v2/data/raw/cmip6-output/CMIP6/ScenarioMIP/NCAR/CESM2-WACCM/ssp585/r1i1p1f1/fx/areacella/gn/v20190815/areacella_fx_CESM2-WACCM_ssp585_r1i1p1f1_gn.nc"]}}}}, "filename": "/Users/znicholls/Documents/AGCEC/netCDF-SCM/netcdf-scm/papers/v2/data/processed/cmip6-output/netcdf-scm-crunched/CMIP6/ScenarioMIP/NCAR/CESM2-WACCM/ssp585/r1i1p1f1/Amon/tas/gn/v20190815/netcdf-scm_tas_Amon_CESM2-WACCM_ssp585_r1i1p1f1_gn_201501-210012.nc", "updated_at": "2020-07-21T07:18:36.809856"}
{"files": ["/Users/znicholls/Documents/AGCEC/netCDF-SCM/netcdf-scm/papers/v2/data/raw/cmip6-output/CMIP6/ScenarioMIP/IPSL/IPSL-CM6A-LR/ssp585/r1i1p1f1/Amon/tas/gr/v20190903/tas_Amon_IPSL-CM6A-LR_ssp585_r1i1p1f1_gr_201501-210012.nc", "/Users/znicholls/Documents/AGCEC/netCDF-SCM/netcdf-scm/papers/v2/data/raw/cmip6-output/CMIP6/ScenarioMIP/IPSL/IPSL-CM6A-LR/ssp585/r1i1p1f1/Amon/tas/gr/v20190903/tas_Amon_IPSL-CM6A-LR_ssp585_r1i1p1f1_gr_210101-230012.nc"], "metadata": {"areacella": {"files": ["/Users/znicholls/Documents/AGCEC/netCDF-SCM/netcdf-scm/papers/v2/data/raw/cmip6-output/CMIP6/ScenarioMIP/IPSL/IPSL-CM6A-LR/ssp585/r1i1p1f1/fx/areacella/gr/v20190903/areacella_fx_IPSL-CM6A-LR_ssp585_r1i1p1f1_gr.nc"]}, "sftlf": {"files": ["/Users/znicholls/Documents/AGCEC/netCDF-SCM/netcdf-scm/papers/v2/data/raw/cmip6-output/CMIP6/ScenarioMIP/IPSL/IPSL-CM6A-LR/ssp585/r1i1p1f1/fx/sftlf/gr/v20190903/sftlf_fx_IPSL-CM6A-LR_ssp585_r1i1p1f1_gr.nc"], "metadata": {"areacella": {"files": ["/Users/znicholls/Documents/AGCEC/netCDF-SCM/netcdf-scm/papers/v2/data/raw/cmip6-output/CMIP6/ScenarioMIP/IPSL/IPSL-CM6A-LR/ssp585/r1i1p1f1/fx/areacella/gr/v20190903/areacella_fx_IPSL-CM6A-LR_ssp585_r1i1p1f1_gr.nc"]}}}}, "filename": "/Users/znicholls/Documents/AGCEC/netCDF-SCM/netcdf-scm/papers/v2/data/processed/cmip6-output/netcdf-scm-crunched/CMIP6/ScenarioMIP/IPSL/IPSL-CM6A-LR/ssp585/r1i1p1f1/Amon/tas/gr/v20190903/netcdf-scm_tas_Amon_IPSL-CM6A-LR_ssp585_r1i1p1f1_gr_201501-230012.nc", "updated_at": "2020-07-21T07:18:38.665667"}
{"files": ["/Users/znicholls/Documents/AGCEC/netCDF-SCM/netcdf-scm/papers/v2/data/raw/cmip6-output/CMIP6/CMIP/NCAR/CESM2-WACCM/historical/r1i1p1f1/Amon/tas/gn/v20190227/tas_Amon_CESM2-WACCM_historical_r1i1p1f1_gn_185001-201412.nc"], "metadata": {"areacella": {"files": ["/Users/znicholls/Documents/AGCEC/netCDF-SCM/netcdf-scm/papers/v2/data/raw/cmip6-output/CMIP6/CMIP/NCAR/CESM2-WACCM/historical/r1i1p1f1/fx/areacella/gn/v20190227/areacella_fx_CESM2-WACCM_historical_r1i1p1f1_gn.nc"]}, "sftlf": {"files": ["/Users/znicholls/Documents/AGCEC/netCDF-SCM/netcdf-scm/papers/v2/data/raw/cmip6-output/CMIP6/CMIP/NCAR/CESM2-WACCM/historical/r1i1p1f1/fx/sftlf/gn/v20190227/sftlf_fx_CESM2-WACCM_historical_r1i1p1f1_gn.nc"], "metadata": {"areacella": {"files": ["/Users/znicholls/Documents/AGCEC/netCDF-SCM/netcdf-scm/papers/v2/data/raw/cmip6-output/CMIP6/CMIP/NCAR/CESM2-WACCM/historical/r1i1p1f1/fx/areacella/gn/v20190227/areacella_fx_CESM2-WACCM_historical_r1i1p1f1_gn.nc"]}}}}, "filename": "/Users/znicholls/Documents/AGCEC/netCDF-SCM/netcdf-scm/papers/v2/data/processed/cmip6-output/netcdf-scm-crunched/CMIP6/CMIP/NCAR/CESM2-WACCM/historical/r1i1p1f1/Amon/tas/gn/v20190227/netcdf-scm_tas_Amon_CESM2-WACCM_historical_r1i1p1f1_gn_185001-201412.nc", "updated_at": "2020-07-21T07:18:41.099737"}
{"files": ["/Users/znicholls/Documents/AGCEC/netCDF-SCM/netcdf-scm/papers/v2/data/raw/cmip6-output/CMIP6/CMIP/NCAR/CESM2-WACCM/piControl/r1i1p1f1/Amon/tas/gn/v20190320/tas_Amon_CESM2-WACCM_piControl_r1i1p1f1_gn_000101-009912.nc", "/Users/znicholls/Documents/AGCEC/netCDF-SCM/netcdf-scm/papers/v2/data/raw/cmip6-output/CMIP6/CMIP/NCAR/CESM2-WACCM/piControl/r1i1p1f1/Amon/tas/gn/v20190320/tas_Amon_CESM2-WACCM_piControl_r1i1p1f1_gn_010001-019912.nc", "/Users/znicholls/Documents/AGCEC/netCDF-SCM/netcdf-scm/papers/v2/data/raw/cmip6-output/CMIP6/CMIP/NCAR/CESM2-WACCM/piControl/r1i1p1f1/Amon/tas/gn/v20190320/tas_Amon_CESM2-WACCM_piControl_r1i1p1f1_gn_020001-029912.nc", "/Users/znicholls/Documents/AGCEC/netCDF-SCM/netcdf-scm/papers/v2/data/raw/cmip6-output/CMIP6/CMIP/NCAR/CESM2-WACCM/piControl/r1i1p1f1/Amon/tas/gn/v20190320/tas_Amon_CESM2-WACCM_piControl_r1i1p1f1_gn_030001-034912.nc", "/Users/znicholls/Documents/AGCEC/netCDF-SCM/netcdf-scm/papers/v2/data/raw/cmip6-output/CMIP6/CMIP/NCAR/CESM2-WACCM/piControl/r1i1p1f1/Amon/tas/gn/v20190320/tas_Amon_CESM2-WACCM_piControl_r1i1p1f1_gn_035001-039912.nc", "/Users/znicholls/Documents/AGCEC/netCDF-SCM/netcdf-scm/papers/v2/data/raw/cmip6-output/CMIP6/CMIP/NCAR/CESM2-WACCM/piControl/r1i1p1f1/Amon/tas/gn/v20190320/tas_Amon_CESM2-WACCM_piControl_r1i1p1f1_gn_040001-044912.nc", "/Users/znicholls/Documents/AGCEC/netCDF-SCM/netcdf-scm/papers/v2/data/raw/cmip6-output/CMIP6/CMIP/NCAR/CESM2-WACCM/piControl/r1i1p1f1/Amon/tas/gn/v20190320/tas_Amon_CESM2-WACCM_piControl_r1i1p1f1_gn_045001-049912.nc"], "metadata": {"areacella": {"files": ["/Users/znicholls/Documents/AGCEC/netCDF-SCM/netcdf-scm/papers/v2/data/raw/cmip6-output/CMIP6/CMIP/NCAR/CESM2-WACCM/piControl/r1i1p1f1/fx/areacella/gn/v20190320/areacella_fx_CESM2-WACCM_piControl_r1i1p1f1_gn.nc"]}, "sftlf": {"files": ["/Users/znicholls/Documents/AGCEC/netCDF-SCM/netcdf-scm/papers/v2/data/raw/cmip6-output/CMIP6/CMIP/NCAR/CESM2-WACCM/piControl/r1i1p1f1/fx/sftlf/gn/v20190320/sftlf_fx_CESM2-WACCM_piControl_r1i1p1f1_gn.nc"], "metadata": {"areacella": {"files": ["/Users/znicholls/Documents/AGCEC/netCDF-SCM/netcdf-scm/papers/v2/data/raw/cmip6-output/CMIP6/CMIP/NCAR/CESM2-WACCM/piControl/r1i1p1f1/fx/areacella/gn/v20190320/areacella_fx_CESM2-WACCM_piControl_r1i1p1f1_gn.nc"]}}}}, "filename": "/Users/znicholls/Documents/AGCEC/netCDF-SCM/netcdf-scm/papers/v2/data/processed/cmip6-output/netcdf-scm-crunched/CMIP6/CMIP/NCAR/CESM2-WACCM/piControl/r1i1p1f1/Amon/tas/gn/v20190320/netcdf-scm_tas_Amon_CESM2-WACCM_piControl_r1i1p1f1_gn_000101-049912.nc", "updated_at": "2020-07-21T07:19:12.093696"}
{"files": ["/Users/znicholls/Documents/AGCEC/netCDF-SCM/netcdf-scm/papers/v2/data/raw/cmip6-output/CMIP6/ScenarioMIP/CNRM-CERFACS/CNRM-CM6-1/ssp245/r3i1p1f2/Amon/tas/gr/v20190410/tas_Amon_CNRM-CM6-1_ssp245_r3i1p1f2_gr_201501-210012.nc"], "filename": "/Users/znicholls/Documents/AGCEC/netCDF-SCM/netcdf-scm/papers/v2/data/processed/cmip6-output/netcdf-scm-crunched/CMIP6/ScenarioMIP/CNRM-CERFACS/CNRM-CM6-1/ssp245/r3i1p1f2/Amon/tas/gr/v20190410/netcdf-scm_tas_Amon_CNRM-CM6-1_ssp245_r3i1p1f2_gr_201501-210012.nc", "updated_at": "2020-10-07T23:14:45.073282"}
{"files": ["/Users/znicholls/Documents/AGCEC/netCDF-SCM/netcdf-scm/papers/v2/data/raw/cmip6-output/CMIP6/ScenarioMIP/CNRM-CERFACS/CNRM-CM6-1/ssp245/r5i1p1f2/Amon/tas/gr/v20190410/tas_Amon_CNRM-CM6-1_ssp245_r5i1p1f2_gr_201501-210012.nc"], "filename": "/Users/znicholls/Documents/AGCEC/netCDF-SCM/netcdf-scm/papers/v2/data/processed/cmip6-output/netcdf-scm-crunched/CMIP6/ScenarioMIP/CNRM-CERFACS/CNRM-CM6-1/ssp245/r5i1p1f2/Amon/tas/gr/v20190410/netcdf-scm_tas_Amon_CNRM-CM6-1_ssp245_r5i1p1f2_gr_201501-210012.nc", "updated_at": "2020-10-07T23:14:45.105445"}
{"files": ["/Users/znicholls/Documents/AGCEC/netCDF-SCM/netcdf-scm/papers/v2/data/raw/cmip6-output/CMIP6/ScenarioMIP/CNRM-CERFACS/CNRM-CM6-1/ssp245/r1i1p1f2/Amon/tas/gr/v20190219/tas_Amon_CNRM-CM6-1_ssp245_r1i1p1f2_gr_201501-210012.nc"], "filename": "/Users/znicholls/Documents/AGCEC/netCDF-SCM/netcdf-scm/papers/v2/data/processed/cmip6-output/netcdf-scm-crunched/CMIP6/ScenarioMIP/CNRM-CERFACS/CNRM-CM6-1/ssp245/r1i1p1f2/Amon/tas/gr/v20190219/netcdf-scm_tas_Amon_CNRM-CM6-1_ssp245_r1i1p1f2_gr_201501-210012.nc", "updated_at": "2020-10-07T23:14:45.149833"}
{"files": ["/Users/znicholls/Documents/AGCEC/netCDF-SCM/netcdf-scm/papers/v2/data/raw/cmip6-output/CMIP6/CMIP/CNRM-CERFACS/CNRM-CM6-1/historical/r3i1p1f2/Amon/tas/gr/v20190125/tas_Amon_CNRM-CM6-1_historical_r3i1p1f2_gr_185001-201412.nc"], "filename": "/Users/znicholls/Documents/AGCEC/netCDF-SCM/netcdf-scm/papers/v2/data/processed/cmip6-output/netcdf-scm-crunched/CMIP6/CMIP/CNRM-CERFACS/CNRM-CM6-1/historical/r3i1p1f2/Amon/tas/gr/v20190125/netcdf-scm_tas_Amon_CNRM-CM6-1_historical_r3i1p1f2_gr_185001-201412.nc", "updated_at": "2020-10-07T23:14:46.729066"}
{"files": ["/Users/znicholls/Documents/AGCEC/netCDF-SCM/netcdf-scm/papers/v2/data/raw/cmip6-output/CMIP6/CMIP/CNRM-CERFACS/CNRM-CM6-1/historical/r5i1p1f2/Amon/tas/gr/v20190125/tas_Amon_CNRM-CM6-1_historical_r5i1p1f2_gr_185001-201412.nc"], "filename": "/Users/znicholls/Documents/AGCEC/netCDF-SCM/netcdf-scm/papers/v2/data/processed/cmip6-output/netcdf-scm-crunched/CMIP6/CMIP/CNRM-CERFACS/CNRM-CM6-1/historical/r5i1p1f2/Amon/tas/gr/v20190125/netcdf-scm_tas_Amon_CNRM-CM6-1_historical_r5i1p1f2_gr_185001-201412.nc", "updated_at": "2020-10-07T23:14:46.747748"}
{"files": ["/Users/znicholls/Documents/AGCEC/netCDF-SCM/netcdf-scm/papers/v2/data/raw/cmip6-output/CMIP6/CMIP/CNRM-CERFACS/CNRM-CM6-1/historical/r1i1p1f2/Amon/tas/gr/v20180917/tas_Amon_CNRM-CM6-1_historical_r1i1p1f2_gr_185001-201412.nc"], "filename": "/Users/znicholls/Documents/AGCEC/netCDF-SCM/netcdf-scm/papers/v2/data/processed/cmip6-output/netcdf-scm-crunched/CMIP6/CMIP/CNRM-CERFACS/CNRM-CM6-1/historical/r1i1p1f2/Amon/tas/gr/v20180917/netcdf-scm_tas_Amon_CNRM-CM6-1_historical_r1i1p1f2_gr_185001-201412.nc", "updated_at": "2020-10-07T23:14:46.972773"}
{"files": ["/Users/znicholls/Documents/AGCEC/netCDF-SCM/netcdf-scm/papers/v2/data/raw/cmip6-output/CMIP6/CMIP/CNRM-CERFACS/CNRM-CM6-1/piControl/r1i1p1f2/Amon/tas/gr/v20180814/tas_Amon_CNRM-CM6-1_piControl_r1i1p1f2_gr_185001-234912.nc"], "filename": "/Users/znicholls/Documents/AGCEC/netCDF-SCM/netcdf-scm/papers/v2/data/processed/cmip6-output/netcdf-scm-crunched/CMIP6/CMIP/CNRM-CERFACS/CNRM-CM6-1/piControl/r1i1p1f2/Amon/tas/gr/v20180814/netcdf-scm_tas_Amon_CNRM-CM6-1_piControl_r1i1p1f2_gr_185001-234912.nc", "updated_at": "2020-10-07T23:14:54.389201"}
